  = clean           42             42
  > setup =           42  count =            0
  < setup =           42  count =            0
  = clean           42             42
  > setup =           42  count =            5
  > setup =           41  count =            4
  > setup =           40  count =            3
  > setup =           39  count =            2
  > setup =           38  count =            1
  > setup =           37  count =            0
  < setup =           37  count =            0
  < setup =           37  count =            1
  < setup =           37  count =            2
  < setup =           37  count =            3
  < setup =           37  count =            4
  < setup =           37  count =            5
  = clean           42             42
  > setup =           37  count =            5
  > setup =           36  count =            4
  > setup =           35  count =            3
  > setup =           34  count =            2
  > setup =           33  count =            1
  > setup =           32  count =            0
  < setup =           32  count =            0
  < setup =           32  count =            1
  < setup =           32  count =            2
  < setup =           32  count =            3
  < setup =           32  count =            4
  < setup =           32  count =            5
