probe sunrpc.clnt.bind_new_program {
        printf("sunrpc.clnt.bind_new_program name: %s\n", name)
        printf("sunrpc.clnt.bind_new_program argstr: %s\n", argstr)
        printf("sunrpc.clnt.bind_new_program servername: %s\n", servername)
	printf("sunrpc.clnt.bind_new_program old_progname: %s\n", old_progname)
        printf("sunrpc.clnt.bind_new_program old_prog: %d\n", old_prog)
        printf("sunrpc.clnt.bind_new_program old_vers: %d\n", old_vers)
        printf("sunrpc.clnt.bind_new_program progname: %s\n", progname)
        printf("sunrpc.clnt.bind_new_program prog: %d\n", prog)
        printf("sunrpc.clnt.bind_new_program vers: %d\n", vers)
}
