test:     file format elf64-powerpcle


Disassembly of section .init:

0000000010000540 <0000003a.plt_call.__gmon_start__>:
    10000540:	18 00 41 f8 	std     r2,24(r1)
    10000544:	30 81 82 e9 	ld      r12,-32464(r2)
    10000548:	a6 03 89 7d 	mtctr   r12
    1000054c:	20 04 80 4e 	bctr
	...

0000000010000560 <_init>:
    10000560:	02 10 40 3c 	lis     r2,4098
    10000564:	00 7f 42 38 	addi    r2,r2,32512
    10000568:	a6 02 08 7c 	mflr    r0
    1000056c:	10 00 01 f8 	std     r0,16(r1)
    10000570:	a1 ff 21 f8 	stdu    r1,-96(r1)
    10000574:	00 00 00 60 	nop
    10000578:	08 80 02 e8 	ld      r0,-32760(r2)
    1000057c:	00 00 a0 2f 	cmpdi   cr7,r0,0
    10000580:	0c 00 fe 41 	beq+    cr7,1000058c <_init+0x2c>
    10000584:	bd ff ff 4b 	bl      10000540 <0000003a.plt_call.__gmon_start__>
    10000588:	18 00 41 e8 	ld      r2,24(r1)
    1000058c:	60 00 21 38 	addi    r1,r1,96
    10000590:	10 00 01 e8 	ld      r0,16(r1)
    10000594:	a6 03 08 7c 	mtlr    r0
    10000598:	20 00 80 4e 	blr

Disassembly of section .text:

00000000100005a0 <00000022.plt_call.fclose@@GLIBC_2.17>:
    100005a0:	18 00 41 f8 	std     r2,24(r1)
    100005a4:	10 81 82 e9 	ld      r12,-32496(r2)
    100005a8:	a6 03 89 7d 	mtctr   r12
    100005ac:	20 04 80 4e 	bctr
	...

00000000100005c0 <00000022.plt_call.fopen@@GLIBC_2.17>:
    100005c0:	18 00 41 f8 	std     r2,24(r1)
    100005c4:	18 81 82 e9 	ld      r12,-32488(r2)
    100005c8:	a6 03 89 7d 	mtctr   r12
    100005cc:	20 04 80 4e 	bctr
	...

00000000100005e0 <00000022.plt_call.free@@GLIBC_2.17>:
    100005e0:	18 00 41 f8 	std     r2,24(r1)
    100005e4:	40 81 82 e9 	ld      r12,-32448(r2)
    100005e8:	a6 03 89 7d 	mtctr   r12
    100005ec:	20 04 80 4e 	bctr
	...

0000000010000600 <00000022.plt_call.__libc_start_main@@GLIBC_2.17>:
    10000600:	18 00 41 f8 	std     r2,24(r1)
    10000604:	28 81 82 e9 	ld      r12,-32472(r2)
    10000608:	a6 03 89 7d 	mtctr   r12
    1000060c:	20 04 80 4e 	bctr
	...

0000000010000620 <00000022.plt_call.strcmp@@GLIBC_2.17>:
    10000620:	18 00 41 f8 	std     r2,24(r1)
    10000624:	38 81 82 e9 	ld      r12,-32456(r2)
    10000628:	a6 03 89 7d 	mtctr   r12
    1000062c:	20 04 80 4e 	bctr
	...

0000000010000640 <00000022.plt_call.printf@@GLIBC_2.17>:
    10000640:	18 00 41 f8 	std     r2,24(r1)
    10000644:	48 81 82 e9 	ld      r12,-32440(r2)
    10000648:	a6 03 89 7d 	mtctr   r12
    1000064c:	20 04 80 4e 	bctr
	...

0000000010000660 <00000022.plt_call.fgets@@GLIBC_2.17>:
    10000660:	18 00 41 f8 	std     r2,24(r1)
    10000664:	50 81 82 e9 	ld      r12,-32432(r2)
    10000668:	a6 03 89 7d 	mtctr   r12
    1000066c:	20 04 80 4e 	bctr
	...

0000000010000680 <00000022.plt_call.malloc@@GLIBC_2.17>:
    10000680:	18 00 41 f8 	std     r2,24(r1)
    10000684:	20 81 82 e9 	ld      r12,-32480(r2)
    10000688:	a6 03 89 7d 	mtctr   r12
    1000068c:	20 04 80 4e 	bctr
	...

00000000100006a0 <main>:
#include <stdlib.h>

#define SIZE 20480

int main(int argc, char *argv[])
{
    100006a0:	02 10 40 3c 	lis     r2,4098
    100006a4:	00 7f 42 38 	addi    r2,r2,32512
    100006a8:	a6 02 08 7c 	mflr    r0
    100006ac:	e0 ff 81 fb 	std     r28,-32(r1)
    100006b0:	e8 ff a1 fb 	std     r29,-24(r1)
	char *s = malloc(sizeof(char) * SIZE);
    100006b4:	00 50 60 38 	li      r3,20480
{
    100006b8:	f0 ff c1 fb 	std     r30,-16(r1)
    100006bc:	f8 ff e1 fb 	std     r31,-8(r1)
	char *u = malloc(sizeof(char) * SIZE);
	FILE *f1 = fopen("test2.c", "r");
    100006c0:	fe ff a2 3f 	addis   r29,r2,-2
    100006c4:	28 8d bd 3b 	addi    r29,r29,-29400
{
    100006c8:	10 00 01 f8 	std     r0,16(r1)
    100006cc:	81 ff 21 f8 	stdu    r1,-128(r1)
	char *s = malloc(sizeof(char) * SIZE);
    100006d0:	b1 ff ff 4b 	bl      10000680 <00000022.plt_call.malloc@@GLIBC_2.17>
    100006d4:	18 00 41 e8 	ld      r2,24(r1)
    100006d8:	78 1b 7e 7c 	mr      r30,r3
	char *u = malloc(sizeof(char) * SIZE);
    100006dc:	00 50 60 38 	li      r3,20480
    100006e0:	a1 ff ff 4b 	bl      10000680 <00000022.plt_call.malloc@@GLIBC_2.17>
    100006e4:	18 00 41 e8 	ld      r2,24(r1)
	FILE *f1 = fopen("test2.c", "r");
    100006e8:	78 eb a4 7f 	mr      r4,r29
	char *u = malloc(sizeof(char) * SIZE);
    100006ec:	78 1b 7f 7c 	mr      r31,r3
	FILE *f1 = fopen("test2.c", "r");
    100006f0:	fe ff 62 3c 	addis   r3,r2,-2
    100006f4:	30 8d 63 38 	addi    r3,r3,-29392
    100006f8:	c9 fe ff 4b 	bl      100005c0 <00000022.plt_call.fopen@@GLIBC_2.17>
    100006fc:	18 00 41 e8 	ld      r2,24(r1)
	FILE *f2 = fopen("test3.c", "r");
    10000700:	78 eb a4 7f 	mr      r4,r29
	FILE *f1 = fopen("test2.c", "r");
    10000704:	78 1b 7c 7c 	mr      r28,r3
	FILE *f2 = fopen("test3.c", "r");
    10000708:	fe ff 62 3c 	addis   r3,r2,-2
    1000070c:	38 8d 63 38 	addi    r3,r3,-29384
    10000710:	b1 fe ff 4b 	bl      100005c0 <00000022.plt_call.fopen@@GLIBC_2.17>
    10000714:	18 00 41 e8 	ld      r2,24(r1)
	fgets(s, SIZE - 1, f1);
    10000718:	78 e3 85 7f 	mr      r5,r28
    1000071c:	ff 4f 80 38 	li      r4,20479
	FILE *f2 = fopen("test3.c", "r");
    10000720:	78 1b 7d 7c 	mr      r29,r3
	fgets(s, SIZE - 1, f1);
    10000724:	78 f3 c3 7f 	mr      r3,r30
    10000728:	39 ff ff 4b 	bl      10000660 <00000022.plt_call.fgets@@GLIBC_2.17>
    1000072c:	18 00 41 e8 	ld      r2,24(r1)
	fgets(u, SIZE - 1, f2);
    10000730:	78 eb a5 7f 	mr      r5,r29
    10000734:	ff 4f 80 38 	li      r4,20479
    10000738:	78 fb e3 7f 	mr      r3,r31
    1000073c:	25 ff ff 4b 	bl      10000660 <00000022.plt_call.fgets@@GLIBC_2.17>
    10000740:	18 00 41 e8 	ld      r2,24(r1)
	fclose(f1);
    10000744:	78 e3 83 7f 	mr      r3,r28
    10000748:	59 fe ff 4b 	bl      100005a0 <00000022.plt_call.fclose@@GLIBC_2.17>
    1000074c:	18 00 41 e8 	ld      r2,24(r1)
	fclose(f2);
    10000750:	78 eb a3 7f 	mr      r3,r29
    10000754:	4d fe ff 4b 	bl      100005a0 <00000022.plt_call.fclose@@GLIBC_2.17>
    10000758:	18 00 41 e8 	ld      r2,24(r1)
	int a = strcmp(s, u);
    1000075c:	28 f4 20 7d 	ldbrx   r9,0,r30
    10000760:	28 fc 40 7d 	ldbrx   r10,0,r31
    10000764:	51 48 ca 7c 	subf.   r6,r10,r9
    10000768:	68 00 82 40 	bne     100007d0 <main+0x130>
    1000076c:	f8 33 2a 7d 	cmpb    r10,r9,r6
    10000770:	00 00 aa 2f 	cmpdi   cr7,r10,0
    10000774:	84 00 9e 41 	beq     cr7,100007f8 <main+0x158>
	printf("Comparison of %s and %s: %i\n", s, u, a);
    10000778:	fe ff 62 3c 	addis   r3,r2,-2
    1000077c:	78 fb e5 7f 	mr      r5,r31
    10000780:	78 f3 c4 7f 	mr      r4,r30
    10000784:	b4 07 c6 7c 	extsw   r6,r6
    10000788:	40 8d 63 38 	addi    r3,r3,-29376
    1000078c:	b5 fe ff 4b 	bl      10000640 <00000022.plt_call.printf@@GLIBC_2.17>
    10000790:	18 00 41 e8 	ld      r2,24(r1)
	free(s);
    10000794:	78 f3 c3 7f 	mr      r3,r30
    10000798:	49 fe ff 4b 	bl      100005e0 <00000022.plt_call.free@@GLIBC_2.17>
    1000079c:	18 00 41 e8 	ld      r2,24(r1)
	free(u);
    100007a0:	78 fb e3 7f 	mr      r3,r31
    100007a4:	3d fe ff 4b 	bl      100005e0 <00000022.plt_call.free@@GLIBC_2.17>
    100007a8:	18 00 41 e8 	ld      r2,24(r1)
	return 0;
}
    100007ac:	80 00 21 38 	addi    r1,r1,128
    100007b0:	00 00 60 38 	li      r3,0
    100007b4:	10 00 01 e8 	ld      r0,16(r1)
    100007b8:	e0 ff 81 eb 	ld      r28,-32(r1)
    100007bc:	e8 ff a1 eb 	ld      r29,-24(r1)
    100007c0:	f0 ff c1 eb 	ld      r30,-16(r1)
    100007c4:	f8 ff e1 eb 	ld      r31,-8(r1)
    100007c8:	a6 03 08 7c 	mtlr    r0
    100007cc:	20 00 80 4e 	blr
	int a = strcmp(s, u);
    100007d0:	00 00 00 39 	li      r8,0
    100007d4:	f8 53 26 7d 	cmpb    r6,r9,r10
    100007d8:	f8 43 28 7d 	cmpb    r8,r9,r8
    100007dc:	38 33 06 7d 	orc     r6,r8,r6
    100007e0:	74 00 c6 7c 	cntlzd  r6,r6
    100007e4:	08 00 c6 38 	addi    r6,r6,8
    100007e8:	30 36 29 79 	rldcl   r9,r9,r6,56
    100007ec:	30 36 4a 79 	rldcl   r10,r10,r6,56
    100007f0:	50 48 ca 7c 	subf    r6,r10,r9
    100007f4:	84 ff ff 4b 	b       10000778 <main+0xd8>
    100007f8:	08 00 3e 39 	addi    r9,r30,8
    100007fc:	08 00 5f 39 	addi    r10,r31,8
    10000800:	28 4c 20 7d 	ldbrx   r9,0,r9
    10000804:	28 54 40 7d 	ldbrx   r10,0,r10
    10000808:	51 48 ca 7c 	subf.   r6,r10,r9
    1000080c:	c4 ff 82 40 	bne     100007d0 <main+0x130>
    10000810:	f8 33 2a 7d 	cmpb    r10,r9,r6
    10000814:	00 00 aa 2f 	cmpdi   cr7,r10,0
    10000818:	60 ff 9e 40 	bne     cr7,10000778 <main+0xd8>
    1000081c:	10 00 3e 39 	addi    r9,r30,16
    10000820:	10 00 5f 39 	addi    r10,r31,16
    10000824:	28 4c 20 7d 	ldbrx   r9,0,r9
    10000828:	28 54 40 7d 	ldbrx   r10,0,r10
    1000082c:	51 48 ca 7c 	subf.   r6,r10,r9
    10000830:	a0 ff 82 40 	bne     100007d0 <main+0x130>
    10000834:	f8 33 2a 7d 	cmpb    r10,r9,r6
    10000838:	00 00 aa 2f 	cmpdi   cr7,r10,0
    1000083c:	3c ff 9e 40 	bne     cr7,10000778 <main+0xd8>
    10000840:	18 00 3e 39 	addi    r9,r30,24
    10000844:	18 00 5f 39 	addi    r10,r31,24
    10000848:	28 4c 20 7d 	ldbrx   r9,0,r9
    1000084c:	28 54 40 7d 	ldbrx   r10,0,r10
    10000850:	51 48 ca 7c 	subf.   r6,r10,r9
    10000854:	7c ff 82 40 	bne     100007d0 <main+0x130>
    10000858:	f8 33 2a 7d 	cmpb    r10,r9,r6
    1000085c:	00 00 aa 2f 	cmpdi   cr7,r10,0
    10000860:	18 ff 9e 40 	bne     cr7,10000778 <main+0xd8>
    10000864:	20 00 3e 39 	addi    r9,r30,32
    10000868:	20 00 5f 39 	addi    r10,r31,32
    1000086c:	28 4c 20 7d 	ldbrx   r9,0,r9
    10000870:	28 54 40 7d 	ldbrx   r10,0,r10
    10000874:	51 48 ca 7c 	subf.   r6,r10,r9
    10000878:	58 ff 82 40 	bne     100007d0 <main+0x130>
    1000087c:	f8 33 2a 7d 	cmpb    r10,r9,r6
    10000880:	00 00 aa 2f 	cmpdi   cr7,r10,0
    10000884:	f4 fe 9e 40 	bne     cr7,10000778 <main+0xd8>
    10000888:	28 00 3e 39 	addi    r9,r30,40
    1000088c:	28 00 5f 39 	addi    r10,r31,40
    10000890:	28 4c 20 7d 	ldbrx   r9,0,r9
    10000894:	28 54 40 7d 	ldbrx   r10,0,r10
    10000898:	51 48 ca 7c 	subf.   r6,r10,r9
    1000089c:	34 ff 82 40 	bne     100007d0 <main+0x130>
    100008a0:	f8 33 2a 7d 	cmpb    r10,r9,r6
    100008a4:	00 00 aa 2f 	cmpdi   cr7,r10,0
    100008a8:	d0 fe 9e 40 	bne     cr7,10000778 <main+0xd8>
    100008ac:	30 00 3e 39 	addi    r9,r30,48
    100008b0:	30 00 5f 39 	addi    r10,r31,48
    100008b4:	28 4c 20 7d 	ldbrx   r9,0,r9
    100008b8:	28 54 40 7d 	ldbrx   r10,0,r10
    100008bc:	51 48 ca 7c 	subf.   r6,r10,r9
    100008c0:	10 ff 82 40 	bne     100007d0 <main+0x130>
    100008c4:	f8 33 2a 7d 	cmpb    r10,r9,r6
    100008c8:	00 00 aa 2f 	cmpdi   cr7,r10,0
    100008cc:	ac fe 9e 40 	bne     cr7,10000778 <main+0xd8>
    100008d0:	38 00 3e 39 	addi    r9,r30,56
    100008d4:	38 00 5f 39 	addi    r10,r31,56
    100008d8:	28 4c 20 7d 	ldbrx   r9,0,r9
    100008dc:	28 54 40 7d 	ldbrx   r10,0,r10
    100008e0:	51 48 ca 7c 	subf.   r6,r10,r9
    100008e4:	ec fe 82 40 	bne     100007d0 <main+0x130>
    100008e8:	f8 33 2a 7d 	cmpb    r10,r9,r6
    100008ec:	00 00 aa 2f 	cmpdi   cr7,r10,0
    100008f0:	88 fe 9e 40 	bne     cr7,10000778 <main+0xd8>
    100008f4:	40 00 9f 38 	addi    r4,r31,64
    100008f8:	40 00 7e 38 	addi    r3,r30,64
    100008fc:	25 fd ff 4b 	bl      10000620 <00000022.plt_call.strcmp@@GLIBC_2.17>
    10000900:	18 00 41 e8 	ld      r2,24(r1)
    10000904:	78 1b 66 7c 	mr      r6,r3
    10000908:	70 fe ff 4b 	b       10000778 <main+0xd8>
    1000090c:	00 00 00 00 	.long 0x0
    10000910:	00 00 00 01 	.long 0x1000000
    10000914:	80 04 00 00 	.long 0x480

0000000010000918 <_start>:
    10000918:	02 10 40 3c 	lis     r2,4098
    1000091c:	00 7f 42 38 	addi    r2,r2,32512
    10000920:	78 0b 29 7c 	mr      r9,r1
    10000924:	e4 06 21 78 	rldicr  r1,r1,0,59
    10000928:	00 00 00 38 	li      r0,0
    1000092c:	81 ff 21 f8 	stdu    r1,-128(r1)
    10000930:	a6 03 08 7c 	mtlr    r0
    10000934:	00 00 01 f8 	std     r0,0(r1)
    10000938:	10 80 02 e9 	ld      r8,-32752(r2)
    1000093c:	c4 fc ff 4b 	b       10000600 <00000022.plt_call.__libc_start_main@@GLIBC_2.17>
    10000940:	00 00 00 60 	nop
	...
    1000094c:	40 20 0c 00 	.long 0xc2040
    10000950:	2c 00 00 00 	.long 0x2c
    10000954:	06 00 5f 73 	andi.   r31,r26,6
    10000958:	74 61 72 74 	andis.  r18,r3,24948

000000001000095c <.annobin_init.c>:
    1000095c:	00 00 00 60 	nop

0000000010000960 <deregister_tm_clones>:
    10000960:	02 10 40 3c 	lis     r2,4098
    10000964:	00 7f 42 38 	addi    r2,r2,32512
    10000968:	00 00 00 60 	nop
    1000096c:	00 00 00 60 	nop
    10000970:	60 81 62 38 	addi    r3,r2,-32416
    10000974:	60 81 22 39 	addi    r9,r2,-32416
    10000978:	00 18 a9 7f 	cmpd    cr7,r9,r3
    1000097c:	20 00 9e 4d 	beqlr   cr7
    10000980:	00 00 00 60 	nop
    10000984:	18 80 22 e9 	ld      r9,-32744(r2)
    10000988:	00 00 a9 2f 	cmpdi   cr7,r9,0
    1000098c:	20 00 9e 4d 	beqlr   cr7
    10000990:	a6 02 08 7c 	mflr    r0
    10000994:	10 00 01 f8 	std     r0,16(r1)
    10000998:	e1 ff 21 f8 	stdu    r1,-32(r1)
    1000099c:	a6 03 29 7d 	mtctr   r9
    100009a0:	78 4b 2c 7d 	mr      r12,r9
    100009a4:	18 00 41 f8 	std     r2,24(r1)
    100009a8:	21 04 80 4e 	bctrl
    100009ac:	18 00 41 e8 	ld      r2,24(r1)
    100009b0:	20 00 21 38 	addi    r1,r1,32
    100009b4:	10 00 01 e8 	ld      r0,16(r1)
    100009b8:	a6 03 08 7c 	mtlr    r0
    100009bc:	20 00 80 4e 	blr

00000000100009c0 <register_tm_clones>:
    100009c0:	02 10 40 3c 	lis     r2,4098
    100009c4:	00 7f 42 38 	addi    r2,r2,32512
    100009c8:	00 00 00 60 	nop
    100009cc:	00 00 00 60 	nop
    100009d0:	60 81 62 38 	addi    r3,r2,-32416
    100009d4:	60 81 82 38 	addi    r4,r2,-32416
    100009d8:	50 20 83 7c 	subf    r4,r3,r4
    100009dc:	74 1e 84 7c 	sradi   r4,r4,3
    100009e0:	74 0e 84 7c 	sradi   r4,r4,1
    100009e4:	95 01 84 7c 	addze.  r4,r4
    100009e8:	20 00 82 4d 	beqlr   
    100009ec:	00 00 00 60 	nop
    100009f0:	20 80 22 e9 	ld      r9,-32736(r2)
    100009f4:	00 00 a9 2f 	cmpdi   cr7,r9,0
    100009f8:	20 00 9e 4d 	beqlr   cr7
    100009fc:	a6 02 08 7c 	mflr    r0
    10000a00:	10 00 01 f8 	std     r0,16(r1)
    10000a04:	e1 ff 21 f8 	stdu    r1,-32(r1)
    10000a08:	a6 03 29 7d 	mtctr   r9
    10000a0c:	78 4b 2c 7d 	mr      r12,r9
    10000a10:	18 00 41 f8 	std     r2,24(r1)
    10000a14:	21 04 80 4e 	bctrl
    10000a18:	18 00 41 e8 	ld      r2,24(r1)
    10000a1c:	20 00 21 38 	addi    r1,r1,32
    10000a20:	10 00 01 e8 	ld      r0,16(r1)
    10000a24:	a6 03 08 7c 	mtlr    r0
    10000a28:	20 00 80 4e 	blr
    10000a2c:	00 00 42 60 	ori     r2,r2,0

0000000010000a30 <__do_global_dtors_aux>:
    10000a30:	02 10 40 3c 	lis     r2,4098
    10000a34:	00 7f 42 38 	addi    r2,r2,32512
    10000a38:	f8 ff e1 fb 	std     r31,-8(r1)
    10000a3c:	d1 ff 21 f8 	stdu    r1,-48(r1)
    10000a40:	00 00 00 60 	nop
    10000a44:	5c 81 22 89 	lbz     r9,-32420(r2)
    10000a48:	00 00 89 2f 	cmpwi   cr7,r9,0
    10000a4c:	20 00 9e 40 	bne     cr7,10000a6c <__do_global_dtors_aux+0x3c>
    10000a50:	a6 02 08 7c 	mflr    r0
    10000a54:	40 00 01 f8 	std     r0,64(r1)
    10000a58:	11 ff ff 4b 	bl      10000968 <deregister_tm_clones+0x8>
    10000a5c:	40 00 01 e8 	ld      r0,64(r1)
    10000a60:	01 00 20 39 	li      r9,1
    10000a64:	5c 81 22 99 	stb     r9,-32420(r2)
    10000a68:	a6 03 08 7c 	mtlr    r0
    10000a6c:	30 00 21 38 	addi    r1,r1,48
    10000a70:	f8 ff e1 eb 	ld      r31,-8(r1)
    10000a74:	20 00 80 4e 	blr
    10000a78:	00 00 00 60 	nop
    10000a7c:	00 00 42 60 	ori     r2,r2,0

0000000010000a80 <frame_dummy>:
    10000a80:	02 10 40 3c 	lis     r2,4098
    10000a84:	00 7f 42 38 	addi    r2,r2,32512
    10000a88:	40 ff ff 4b 	b       100009c8 <register_tm_clones+0x8>
    10000a8c:	00 00 00 60 	nop

0000000010000a90 <__libc_csu_init>:
    10000a90:	Address 0x0000000010000a90 is out of bounds.


0000000010000a92 <.annobin_elf_init.c>:
    10000a92:	40 3c 00 7f 	.long 0x7f003c40
    10000a96:	42 38 a6 02 	.long 0x2a63842
    10000a9a:	08 7c d0 ff 	xssubqp v30,v16,v15
    10000a9e:	41 fb d8 ff 	.long 0xffd8fb41
    10000aa2:	61 fb e0 ff 	.long 0xffe0fb61
    10000aa6:	81 fb e8 ff 	.long 0xffe8fb81
    10000aaa:	a1 fb f0 ff 	.long 0xfff0fba1
    10000aae:	c1 fb 10 00 	.long 0x10fbc1
    10000ab2:	01 f8 b1 ff 	.long 0xffb1f801
    10000ab6:	21 f8 ff ff 	.long 0xfffff821
    10000aba:	a2 3f ff ff 	.long 0xffff3fa2
    10000abe:	c2 3f 08 7e 	.long 0x7e083fc2
    10000ac2:	bd 3b 00 7e 	.long 0x7e003bbd
    10000ac6:	de 3b 50 e8 	lwa     r2,15324(r16)
    10000aca:	be 7f 78 1b 	.long 0x1b787fbe
    10000ace:	7c 7c 78 23 	subfic  r27,r24,31868
    10000ad2:	9b 7c 78 2b 	cmpldi  cr6,r24,31899
    10000ad6:	ba 7c 91 fa 	stq     r20,31928(r17)
    10000ada:	ff 4b 00 00 	.long 0x4bff
    10000ade:	00 60 75 1e 	mulli   r19,r21,24576
    10000ae2:	bd 7f 4c 00 	.long 0x4c7fbd
    10000ae6:	82 41 18 00 	.long 0x184182
    10000aea:	41 f8 48 00 	.long 0x48f841
    10000aee:	e1 fb f8 ff 	.long 0xfff8fbe1
    10000af2:	de 3b 00 00 	.long 0x3bde
    10000af6:	e0 3b 00 00 	.long 0x3be0
    10000afa:	00 60 00 00 	.long 0x6000
    10000afe:	42 60 09 00 	.long 0x96042
    10000b02:	3e e9 78 d3 	stfs    f27,-5826(r24)
    10000b06:	45 7f 78 db 	stfd    f27,32581(r24)
    10000b0a:	64 7f 78 e3 	psq_l   f27,-156(r24),0,7
    10000b0e:	83 7f 01 00 	.long 0x17f83
    10000b12:	ff 3b a6 03 	.long 0x3a63bff
    10000b16:	29 7d 78 4b 	bl      f78883e <0000003a.plt_call.__gmon_start__-0x877d02>
    10000b1a:	2c 7d 21 04 	.long 0x4217d2c
    10000b1e:	80 4e 18 00 	.long 0x184e80
    10000b22:	41 e8 40 f8 	.long 0xf840e841
    10000b26:	bd 7f d8 ff 	fnmsub. f30,f24,f30,f15
    10000b2a:	9e 40 48 00 	.long 0x48409e
    10000b2e:	e1 eb 50 00 	.long 0x50ebe1
    10000b32:	21 38 10 00 	.long 0x103821
    10000b36:	01 e8 d0 ff 	.long 0xffd0e801
    10000b3a:	41 eb d8 ff 	.long 0xffd8eb41
    10000b3e:	61 eb e0 ff 	.long 0xffe0eb61
    10000b42:	81 eb e8 ff 	.long 0xffe8eb81
    10000b46:	a1 eb f0 ff 	.long 0xfff0eba1
    10000b4a:	c1 eb a6 03 	.long 0x3a6ebc1
    10000b4e:	08 7c 20 00 	.long 0x207c08
    10000b52:	80 4e 00 00 	.long 0x4e80
    10000b56:	00 00 00 00 	.long 0x0
    10000b5a:	00 01 80 06 	.long 0x6800100
	...

0000000010000b60 <__libc_csu_fini>:
    10000b60:	20 00 80 4e 	blr
	...

0000000010000b70 <.annobin_elf_init.c_end>:
    10000b70:	80 f4 01 00 	.long 0x1f480
    10000b74:	00 00 00 00 	.long 0x0

0000000010000b78 <__glink_PLTresolve>:
    10000b78:	a6 02 08 7c 	mflr    r0
    10000b7c:	05 00 9f 42 	bcl     20,4*cr7+so,10000b80 <__glink_PLTresolve+0x8>
    10000b80:	a6 02 68 7d 	mflr    r11
    10000b84:	18 00 41 f8 	std     r2,24(r1)
    10000b88:	f0 ff 4b e8 	ld      r2,-16(r11)
    10000b8c:	a6 03 08 7c 	mtlr    r0
    10000b90:	50 60 8b 7d 	subf    r12,r11,r12
    10000b94:	14 5a 62 7d 	add     r11,r2,r11
    10000b98:	d0 ff 0c 38 	addi    r0,r12,-48
    10000b9c:	00 00 8b e9 	ld      r12,0(r11)
    10000ba0:	82 f0 00 78 	rldicl  r0,r0,62,2
    10000ba4:	a6 03 89 7d 	mtctr   r12
    10000ba8:	08 00 6b e9 	ld      r11,8(r11)
    10000bac:	20 04 80 4e 	bctr

0000000010000bb0 <fclose@plt>:
    10000bb0:	c8 ff ff 4b 	b       10000b78 <__glink_PLTresolve>

0000000010000bb4 <fopen@plt>:
    10000bb4:	c4 ff ff 4b 	b       10000b78 <__glink_PLTresolve>

0000000010000bb8 <malloc@plt>:
    10000bb8:	c0 ff ff 4b 	b       10000b78 <__glink_PLTresolve>

0000000010000bbc <__libc_start_main@plt>:
    10000bbc:	bc ff ff 4b 	b       10000b78 <__glink_PLTresolve>

0000000010000bc0 <__gmon_start__@plt>:
    10000bc0:	b8 ff ff 4b 	b       10000b78 <__glink_PLTresolve>

0000000010000bc4 <strcmp@plt>:
    10000bc4:	b4 ff ff 4b 	b       10000b78 <__glink_PLTresolve>

0000000010000bc8 <free@plt>:
    10000bc8:	b0 ff ff 4b 	b       10000b78 <__glink_PLTresolve>

0000000010000bcc <printf@plt>:
    10000bcc:	ac ff ff 4b 	b       10000b78 <__glink_PLTresolve>

0000000010000bd0 <fgets@plt>:
    10000bd0:	a8 ff ff 4b 	b       10000b78 <__glink_PLTresolve>

Disassembly of section .fini:

0000000010000bd4 <_fini>:
    10000bd4:	02 10 40 3c 	lis     r2,4098
    10000bd8:	00 7f 42 38 	addi    r2,r2,32512
    10000bdc:	a6 02 08 7c 	mflr    r0
    10000be0:	10 00 01 f8 	std     r0,16(r1)
    10000be4:	a1 ff 21 f8 	stdu    r1,-96(r1)
    10000be8:	60 00 21 38 	addi    r1,r1,96
    10000bec:	10 00 01 e8 	ld      r0,16(r1)
    10000bf0:	a6 03 08 7c 	mtlr    r0
    10000bf4:	20 00 80 4e 	blr
